                   (10, 1, False)    (10, 2, False)    (10, 3, False)    (10, 4, False)    (10, 5, False)    (10, 6, False)    (10, 7, False)    (10, 1, True)    (10, 2, True)    (10, 3, True)    (10, 4, True)    (10, 5, True)    (10, 6, True)    (10, 7, True)    (50, 1, False)    (50, 2, False)    (50, 3, False)    (50, 4, False)    (50, 5, False)    (50, 6, False)    (50, 7, False)    (50, 1, True)    (50, 2, True)    (50, 3, True)    (50, 4, True)    (50, 5, True)    (50, 6, True)    (50, 7, True)    (100, 1, False)    (100, 2, False)    (100, 3, False)    (100, 4, False)    (100, 5, False)    (100, 6, False)    (100, 7, False)    (100, 1, True)    (100, 2, True)    (100, 3, True)    (100, 4, True)    (100, 5, True)    (100, 6, True)    (100, 7, True)
---------------  ----------------  ----------------  ----------------  ----------------  ----------------  ----------------  ----------------  ---------------  ---------------  ---------------  ---------------  ---------------  ---------------  ---------------  ----------------  ----------------  ----------------  ----------------  ----------------  ----------------  ----------------  ---------------  ---------------  ---------------  ---------------  ---------------  ---------------  ---------------  -----------------  -----------------  -----------------  -----------------  -----------------  -----------------  -----------------  ----------------  ----------------  ----------------  ----------------  ----------------  ----------------  ----------------
(10, 1, False)                  0                 0                 0                 0                 0                 0                 0                0                0                0                0                0                0                0                 0                 0                 0                 0                 0                 0                 0                0                0                0                0                0                0                0                  0                  0                  0                  0                  0                  0                  0                 0                 0                 0                 0                 0                 0                 0
(10, 2, False)                  1                 0                 0                 0                 0                 0                 0                0                0                0                0                0                0                0                 0                 0                 0                 0                 0                 0                 0                0                0                0                0                0                0                0                  0                  0                  0                  0                  0                  0                  0                 0                 0                 0                 0                 0                 0                 0
(10, 3, False)                  1                 1                 0                 0                 0                 0                 0                1                0                0                0                0                0                0                 0                 0                 0                 0                 0                 0                 0                0                0                0                0                0                0                0                  0                  0                  0                  0                  0                  0                  0                 0                 0                 0                 0                 0                 0                 0
(10, 4, False)                  1                 1                 1                 0                 0                 0                 0                1                1                0                0                0                0                0                 0                 0                 0                 0                 0                 0                 0                0                0                0                0                0                0                0                  0                  0                  0                  0                  0                  0                  0                 0                 0                 0                 0                 0                 0                 0
(10, 5, False)                  1                 1                 1                 1                 0                 0                 0                1                1                1                0                0                0                0                 0                 0                 0                 0                 0                 0                 0                0                0                0                0                0                0                0                  0                  0                  0                  0                  0                  0                  0                 0                 0                 0                 0                 0                 0                 0
(10, 6, False)                  1                 1                 1                 1                 1                 0                 0                1                1                1                1                0                0                0                 0                 0                 0                 0                 0                 0                 0                0                0                0                0                0                0                0                  0                  0                  0                  0                  0                  0                  0                 0                 0                 0                 0                 0                 0                 0
(10, 7, False)                  1                 1                 1                 1                 1                 1                 0                1                1                1                1                1                0                0                 0                 0                 0                 0                 0                 0                 0                0                0                0                0                0                0                0                  0                  0                  0                  0                  0                  0                  0                 0                 0                 0                 0                 0                 0                 0
(10, 1, True)                   1                 0                 0                 0                 0                 0                 0                0                0                0                0                0                0                0                 0                 0                 0                 0                 0                 0                 0                0                0                0                0                0                0                0                  0                  0                  0                  0                  0                  0                  0                 0                 0                 0                 0                 0                 0                 0
(10, 2, True)                   1                 1                 0                 0                 0                 0                 0                1                0                0                0                0                0                0                 0                 0                 0                 0                 0                 0                 0                0                0                0                0                0                0                0                  0                  0                  0                  0                  0                  0                  0                 0                 0                 0                 0                 0                 0                 0
(10, 3, True)                   1                 1                 1                 0                 0                 0                 0                1                1                0                0                0                0                0                 0                 0                 0                 0                 0                 0                 0                0                0                0                0                0                0                0                  0                  0                  0                  0                  0                  0                  0                 0                 0                 0                 0                 0                 0                 0
(10, 4, True)                   1                 1                 1                 1                 0                 0                 0                1                1                1                0                0                0                0                 0                 0                 0                 0                 0                 0                 0                0                0                0                0                0                0                0                  0                  0                  0                  0                  0                  0                  0                 0                 0                 0                 0                 0                 0                 0
(10, 5, True)                   1                 1                 1                 1                 1                 0                 0                1                1                1                1                0                0                0                 0                 0                 0                 0                 0                 0                 0                0                0                0                0                0                0                0                  0                  0                  0                  0                  0                  0                  0                 0                 0                 0                 0                 0                 0                 0
(10, 6, True)                   1                 1                 1                 1                 1                 1                 0                1                1                1                1                1                0                0                 0                 0                 0                 0                 0                 0                 0                0                0                0                0                0                0                0                  0                  0                  0                  0                  0                  0                  0                 0                 0                 0                 0                 0                 0                 0
(10, 7, True)                   1                 1                 1                 1                 1                 1                 1                1                1                1                1                1                1                0                 0                 0                 0                 0                 0                 0                 0                0                0                0                0                0                0                0                  0                  0                  0                  0                  0                  0                  0                 0                 0                 0                 0                 0                 0                 0
(50, 1, False)                  1                 1                 1                 1                 1                 1                 1                1                1                1                1                1                1                1                 0                 0                 0                 0                 0                 0                 0                0                0                0                0                0                0                0                  0                  0                  0                  0                  0                  0                  0                 0                 0                 0                 0                 0                 0                 0
(50, 2, False)                  1                 1                 1                 1                 1                 1                 1                1                1                1                1                1                1                1                 1                 0                 0                 0                 0                 0                 0                0                0                0                0                0                0                0                  0                  0                  0                  0                  0                  0                  0                 0                 0                 0                 0                 0                 0                 0
(50, 3, False)                  1                 1                 1                 1                 1                 1                 1                1                1                1                1                1                1                1                 1                 1                 0                 0                 0                 0                 0                1                0                0                0                0                0                0                  0                  0                  0                  0                  0                  0                  0                 0                 0                 0                 0                 0                 0                 0
(50, 4, False)                  1                 1                 1                 1                 1                 1                 1                1                1                1                1                1                1                1                 1                 1                 1                 0                 0                 0                 0                1                1                0                0                0                0                0                  0                  0                  0                  0                  0                  0                  0                 0                 0                 0                 0                 0                 0                 0
(50, 5, False)                  1                 1                 1                 1                 1                 1                 1                1                1                1                1                1                1                1                 1                 1                 1                 1                 0                 0                 0                1                1                1                0                0                0                0                  0                  0                  0                  0                  0                  0                  0                 0                 0                 0                 0                 0                 0                 0
(50, 6, False)                  1                 1                 1                 1                 1                 1                 1                1                1                1                1                1                1                1                 1                 1                 1                 1                 1                 0                 0                1                1                1                1                0                0                0                  0                  0                  0                  0                  0                  0                  0                 0                 0                 0                 0                 0                 0                 0
(50, 7, False)                  1                 1                 1                 1                 1                 1                 1                1                1                1                1                1                1                1                 1                 1                 1                 1                 1                 1                 0                1                1                1                1                1                0                0                  0                  0                  0                  0                  0                  0                  0                 0                 0                 0                 0                 0                 0                 0
(50, 1, True)                   1                 1                 1                 1                 1                 1                 1                1                1                1                1                1                1                1                 1                 0                 0                 0                 0                 0                 0                0                0                0                0                0                0                0                  0                  0                  0                  0                  0                  0                  0                 0                 0                 0                 0                 0                 0                 0
(50, 2, True)                   1                 1                 1                 1                 1                 1                 1                1                1                1                1                1                1                1                 1                 1                 0                 0                 0                 0                 0                1                0                0                0                0                0                0                  0                  0                  0                  0                  0                  0                  0                 0                 0                 0                 0                 0                 0                 0
(50, 3, True)                   1                 1                 1                 1                 1                 1                 1                1                1                1                1                1                1                1                 1                 1                 1                 0                 0                 0                 0                1                1                0                0                0                0                0                  0                  0                  0                  0                  0                  0                  0                 0                 0                 0                 0                 0                 0                 0
(50, 4, True)                   1                 1                 1                 1                 1                 1                 1                1                1                1                1                1                1                1                 1                 1                 1                 1                 0                 0                 0                1                1                1                0                0                0                0                  0                  0                  0                  0                  0                  0                  0                 0                 0                 0                 0                 0                 0                 0
(50, 5, True)                   1                 1                 1                 1                 1                 1                 1                1                1                1                1                1                1                1                 1                 1                 1                 1                 1                 0                 0                1                1                1                1                0                0                0                  0                  0                  0                  0                  0                  0                  0                 0                 0                 0                 0                 0                 0                 0
(50, 6, True)                   1                 1                 1                 1                 1                 1                 1                1                1                1                1                1                1                1                 1                 1                 1                 1                 1                 1                 0                1                1                1                1                1                0                0                  0                  0                  0                  0                  0                  0                  0                 0                 0                 0                 0                 0                 0                 0
(50, 7, True)                   1                 1                 1                 1                 1                 1                 1                1                1                1                1                1                1                1                 1                 1                 1                 1                 1                 1                 1                1                1                1                1                1                1                0                  0                  0                  0                  0                  0                  0                  0                 0                 0                 0                 0                 0                 0                 0
(100, 1, False)                 1                 1                 1                 1                 1                 1                 1                1                1                1                1                1                1                1                 1                 1                 1                 1                 1                 1                 1                1                1                1                1                1                1                1                  0                  0                  0                  0                  0                  0                  0                 0                 0                 0                 0                 0                 0                 0
(100, 2, False)                 1                 1                 1                 1                 1                 1                 1                1                1                1                1                1                1                1                 1                 1                 1                 1                 1                 1                 1                1                1                1                1                1                1                1                  1                  0                  0                  0                  0                  0                  0                 0                 0                 0                 0                 0                 0                 0
(100, 3, False)                 1                 1                 1                 1                 1                 1                 1                1                1                1                1                1                1                1                 1                 1                 1                 1                 1                 1                 1                1                1                1                1                1                1                1                  1                  1                  0                  0                  0                  0                  0                 1                 0                 0                 0                 0                 0                 0
(100, 4, False)                 1                 1                 1                 1                 1                 1                 1                1                1                1                1                1                1                1                 1                 1                 1                 1                 1                 1                 1                1                1                1                1                1                1                1                  1                  1                  1                  0                  0                  0                  0                 1                 1                 0                 0                 0                 0                 0
(100, 5, False)                 1                 1                 1                 1                 1                 1                 1                1                1                1                1                1                1                1                 1                 1                 1                 1                 1                 1                 1                1                1                1                1                1                1                1                  1                  1                  1                  1                  0                  0                  0                 1                 1                 1                 0                 0                 0                 0
(100, 6, False)                 1                 1                 1                 1                 1                 1                 1                1                1                1                1                1                1                1                 1                 1                 1                 1                 1                 1                 1                1                1                1                1                1                1                1                  1                  1                  1                  1                  1                  0                  0                 1                 1                 1                 1                 0                 0                 0
(100, 7, False)                 1                 1                 1                 1                 1                 1                 1                1                1                1                1                1                1                1                 1                 1                 1                 1                 1                 1                 1                1                1                1                1                1                1                1                  1                  1                  1                  1                  1                  1                  0                 1                 1                 1                 1                 1                 0                 0
(100, 1, True)                  1                 1                 1                 1                 1                 1                 1                1                1                1                1                1                1                1                 1                 1                 1                 1                 1                 1                 1                1                1                1                1                1                1                1                  1                  0                  0                  0                  0                  0                  0                 0                 0                 0                 0                 0                 0                 0
(100, 2, True)                  1                 1                 1                 1                 1                 1                 1                1                1                1                1                1                1                1                 1                 1                 1                 1                 1                 1                 1                1                1                1                1                1                1                1                  1                  1                  0                  0                  0                  0                  0                 1                 0                 0                 0                 0                 0                 0
(100, 3, True)                  1                 1                 1                 1                 1                 1                 1                1                1                1                1                1                1                1                 1                 1                 1                 1                 1                 1                 1                1                1                1                1                1                1                1                  1                  1                  1                  0                  0                  0                  0                 1                 1                 0                 0                 0                 0                 0
(100, 4, True)                  1                 1                 1                 1                 1                 1                 1                1                1                1                1                1                1                1                 1                 1                 1                 1                 1                 1                 1                1                1                1                1                1                1                1                  1                  1                  1                  1                  0                  0                  0                 1                 1                 1                 0                 0                 0                 0
(100, 5, True)                  1                 1                 1                 1                 1                 1                 1                1                1                1                1                1                1                1                 1                 1                 1                 1                 1                 1                 1                1                1                1                1                1                1                1                  1                  1                  1                  1                  1                  0                  0                 1                 1                 1                 1                 0                 0                 0
(100, 6, True)                  1                 1                 1                 1                 1                 1                 1                1                1                1                1                1                1                1                 1                 1                 1                 1                 1                 1                 1                1                1                1                1                1                1                1                  1                  1                  1                  1                  1                  1                  0                 1                 1                 1                 1                 1                 0                 0
(100, 7, True)                  1                 1                 1                 1                 1                 1                 1                1                1                1                1                1                1                1                 1                 1                 1                 1                 1                 1                 1                1                1                1                1                1                1                1                  1                  1                  1                  1                  1                  1                  1                 1                 1                 1                 1                 1                 1                 0
